<?xml version="1.0" encoding="UTF-8"?>
<svg width="20px" height="18px" viewBox="0 0 20 18" version="1.1" xmlns="http://www.w3.org/2000/svg" xmlns:xlink="http://www.w3.org/1999/xlink">
    <!-- Generator: Sketch 45.2 (43514) - http://www.bohemiancoding.com/sketch -->
    <title>aboveground parking icon</title>
    <desc>Created with Sketch.</desc>
    <defs></defs>
    <g id="Page-1" stroke="none" stroke-width="1" fill="none" fill-rule="evenodd">
        <g id="aboveground-parking-icon" transform="translate(0.000000, 1.000000)">
            <path d="M20,16 C20,16.552 19.552,17 19,17 L1,17 C0.448,17 0,16.552 0,16 C0,15.448 0.448,15 1,15 L19,15 C19.552,15 20,15.448 20,16" id="Fill-1" fill="#F37920"></path>
            <path d="M4,9 L4,13" id="Fill-2" fill="#6C4A78"></path>
            <path d="M4,9 L4,13" id="Stroke-3" stroke="#6C4A78" stroke-width="2" stroke-linecap="round" stroke-linejoin="round"></path>
            <path d="M16,9 L16,13" id="Fill-4" fill="#6C4A78"></path>
            <path d="M16,9 L16,13" id="Stroke-5" stroke="#6C4A78" stroke-width="2" stroke-linecap="round" stroke-linejoin="round"></path>
            <polyline id="Fill-6" fill="#6C4A78" points="2 5 18 5 18 10 2 10 2 5"></polyline>
            <polyline id="Stroke-7" stroke="#6C4A78" stroke-width="2" stroke-linecap="round" stroke-linejoin="round" points="2 5 18 5 18 10 2 10 2 5"></polyline>
            <polyline id="Stroke-8" stroke="#6C4A78" stroke-width="2" stroke-linecap="round" stroke-linejoin="round" points="3 5 5 0 15 0 17 5"></polyline>
            <path d="M6,7.5 C6,8.329 5.329,9 4.5,9 C3.671,9 3,8.329 3,7.5 C3,6.671 3.671,6 4.5,6 C5.329,6 6,6.671 6,7.5" id="Fill-9" fill="#FFFFFF"></path>
            <path d="M17,7.5 C17,8.329 16.329,9 15.5,9 C14.671,9 14,8.329 14,7.5 C14,6.671 14.671,6 15.5,6 C16.329,6 17,6.671 17,7.5" id="Fill-10" fill="#FFFFFF"></path>
        </g>
    </g>
</svg>