<?xml version="1.0" encoding="UTF-8"?>
<svg width="21px" height="22px" viewBox="0 0 21 22" version="1.1" xmlns="http://www.w3.org/2000/svg" xmlns:xlink="http://www.w3.org/1999/xlink">
    <!-- Generator: Sketch 45.2 (43514) - http://www.bohemiancoding.com/sketch -->
    <title>deposit</title>
    <desc>Created with Sketch.</desc>
    <defs></defs>
    <g id="Page-1" stroke="none" stroke-width="1" fill="none" fill-rule="evenodd">
        <g id="deposit" transform="translate(0.750000, 0.396456)">
            <path d="M2,18.2291667 C2,18.8041667 1.552,19.2708333 1,19.2708333 C0.448,19.2708333 0,18.8041667 0,18.2291667 L0,1.5625 C0,0.9875 0.448,0.520833333 1,0.520833333 C1.552,0.520833333 2,0.9875 2,1.5625 L2,18.2291667" id="Fill-1" fill="#6C4A78"></path>
            <path d="M20,18.2291667 C20,18.8041667 19.552,19.2708333 19,19.2708333 C18.448,19.2708333 18,18.8041667 18,18.2291667 L18,1.5625 C18,0.9875 18.448,0.520833333 19,0.520833333 C19.552,0.520833333 20,0.9875 20,1.5625 L20,18.2291667" id="Fill-2" fill="#6C4A78"></path>
            <path d="M20,18.2291667 C20,18.8041667 19.552,19.2708333 19,19.2708333 L1,19.2708333 C0.448,19.2708333 0,18.8041667 0,18.2291667 C0,17.6541667 0.448,17.1875 1,17.1875 L19,17.1875 C19.552,17.1875 20,17.6541667 20,18.2291667" id="Fill-3" fill="#6C4A78"></path>
            <path d="M20,1.5625 C20,2.1375 19.552,2.60416667 19,2.60416667 L1,2.60416667 C0.448,2.60416667 0,2.1375 0,1.5625 C0,0.9875 0.448,0.520833333 1,0.520833333 L19,0.520833333 C19.552,0.520833333 20,0.9875 20,1.5625" id="Fill-4" fill="#6C4A78"></path>
            <path d="M4,18.2291667 L4,20.3125" id="Fill-5" fill="#6C4A78"></path>
            <path d="M4,18.2291667 L4,20.3125" id="Stroke-6" stroke="#6C4A78" stroke-width="2" stroke-linecap="round" stroke-linejoin="round"></path>
            <path d="M16,18.2291667 L16,20.3125" id="Fill-7" fill="#6C4A78"></path>
            <path d="M16,18.2291667 L16,20.3125" id="Stroke-8" stroke="#6C4A78" stroke-width="2" stroke-linecap="round" stroke-linejoin="round"></path>
            <path d="M1,6.25 L3,6.25 M1,13.5416667 L3,13.5416667" id="Stroke-9" stroke="#6C4A78" stroke-linecap="round" stroke-linejoin="round"></path>
            <path d="M13.5,9.89583333 C13.5,11.334375 12.381,12.5 11,12.5 C9.619,12.5 8.5,11.334375 8.5,9.89583333 C8.5,8.45729167 9.619,7.29166667 11,7.29166667 C12.381,7.29166667 13.5,8.45729167 13.5,9.89583333 L13.5,9.89583333 Z" id="Stroke-10" stroke="#F37920" stroke-linecap="round" stroke-linejoin="round"></path>
            <polygon id="Stroke-11" stroke="#F37920" stroke-width="2" stroke-linecap="round" stroke-linejoin="round" points="4 4.6875 16 4.6875 16 15.1041667 4 15.1041667"></polygon>
        </g>
    </g>
</svg>