<?xml version="1.0" encoding="UTF-8"?>
<svg width="20px" height="20px" viewBox="0 0 20 20" version="1.1" xmlns="http://www.w3.org/2000/svg" xmlns:xlink="http://www.w3.org/1999/xlink">
    <!-- Generator: Sketch 45.2 (43514) - http://www.bohemiancoding.com/sketch -->
    <title>Fire-fighting</title>
    <desc>Created with Sketch.</desc>
    <defs></defs>
    <g id="Page-1" stroke="none" stroke-width="1" fill="none" fill-rule="evenodd">
        <g id="Fire-fighting">
            <path d="M20,1 C20,1.553 19.552,2 19,2 L1,2 C0.448,2 0,1.553 0,1 C0,0.447 0.448,0 1,0 L19,0 C19.552,0 20,0.447 20,1" id="Fill-1" fill="#6C4A78"></path>
            <path d="M11,5 C11,5.553 10.552,6 10,6 C9.448,6 9,5.553 9,5 L9,4 C9,3.447 9.448,3 10,3 C10.552,3 11,3.447 11,4 L11,5" id="Fill-2" fill="#6C4A78"></path>
            <path d="M15,5 C15,5.553 14.552,6 14,6 C13.448,6 13,5.553 13,5 L13,4 C13,3.447 13.448,3 14,3 C14.552,3 15,3.447 15,4 L15,5" id="Fill-3" fill="#6C4A78"></path>
            <path d="M7,5 C7,5.553 6.552,6 6,6 C5.448,6 5,5.553 5,5 L5,4 C5,3.447 5.448,3 6,3 C6.552,3 7,3.447 7,4 L7,5" id="Fill-4" fill="#6C4A78"></path>
            <path d="M3,5 C3,5.553 2.552,6 2,6 C1.448,6 1,5.553 1,5 L1,4 C1,3.447 1.448,3 2,3 C2.552,3 3,3.447 3,4 L3,5" id="Fill-5" fill="#6C4A78"></path>
            <path d="M19,5 C19,5.553 18.552,6 18,6 C17.448,6 17,5.553 17,5 L17,4 C17,3.447 17.448,3 18,3 C18.552,3 19,3.447 19,4 L19,5" id="Fill-6" fill="#6C4A78"></path>
            <path d="M4.734,19 C4.734,19 3.474,16.525 5.286,14.508 C7.099,12.487 8.886,11.665 9.182,9.975 C9.327,9.144 9.109,8.606 8.89,8.074 C12.421,9.609 9.171,12.281 11.171,13.923 C12.033,14.63 13.593,14.281 13.796,13.151 C13.796,13.151 17.069,15.538 15.015,19 L4.734,19 L4.734,19 Z M1,19 L19,19 L1,19 Z" id="Stroke-7" stroke="#F37920" stroke-width="2" stroke-linecap="round" stroke-linejoin="round"></path>
        </g>
    </g>
</svg>