<svg xmlns="http://www.w3.org/2000/svg" width="45" height="43" viewBox="0 0 45 43">
    <g fill="none" fill-rule="nonzero">
        <path fill="#F27125" d="M38.118 6.132a25.14 25.14 0 0 1 2.992 1.746c.34.257.61.433.776.531l3.165-2.886a31.478 31.478 0 0 0-5.382-3.119l-2.435 3.303.884.425zM15.607 21.438a9.428 9.428 0 0 1 1.37-1.167 10.724 10.724 0 0 1 6.147-1.839 10.54 10.54 0 0 1 4.449 1.059c.487.256.877.467 1.112.641.034.025.063.02.067.05l.08-.07 3.096-2.8c-.168-.124-.37-.273-.63-.413a24.65 24.65 0 0 1-.915-.522c-.353-.157-.74-.339-1.189-.542a13.085 13.085 0 0 0-.698-.256c-.252-.083-.475-.17-.756-.249-.252-.082-.53-.132-.812-.21-.281-.08-.584-.096-.896-.17-.155-.037-.307-.046-.462-.083-.152-.008-.303-.016-.488-.05-.152-.008-.337-.04-.489-.049l-.244-.025-.24.004c-1.363-.074-2.842.104-4.35.494-1.443.439-2.974 1.097-4.376 2.033-1.018.675-1.956 1.486-2.723 2.45l2.435 2.348c.153-.2.33-.431.512-.634zM34.676 10.561c.514.285.96.52 1.35.762.19.092.356.217.522.343.161.096.294.196.426.297.232.175.427.296.555.368l2.7-2.49c-.1-.076-.233-.176-.394-.272-.588-.393-1.474-1.012-2.684-1.615a12.377 12.377 0 0 0-1.11-.528l-2.086 2.85c.278.08.526.164.72.285zM32.482 15.47c.29.172.521.351.716.475.161.099.26.176.36.253l2.684-2.528-.199-.153a3.537 3.537 0 0 1-.393-.278 2.951 2.951 0 0 0-.488-.325c-.356-.223-.77-.437-1.22-.707-.286-.142-.605-.309-.948-.442l-2.043 2.891c.157.069.348.163.505.232.385.218.736.411 1.026.583z"/>
        <path fill="#F27125" d="M19.495 10.523a19.21 19.21 0 0 0-6.102 2.807c-.605.42-1.177.865-1.74 1.37l1.715 2.53c.08-.072.19-.148.267-.25.19-.149.347-.323.538-.472.19-.148.385-.267.576-.416a16.034 16.034 0 0 1 4.865-2.358c1.655-.476 3.319-.68 4.804-.645l.27-.007.276.022c.182.005.368.04.55.044.182.005.368.04.55.045.186.035.339.044.525.078.338.044.677.088.99.166.034.025.093.017.127.043l1.43-3.155c-.343-.073-.681-.117-1.054-.186a3.502 3.502 0 0 1-.622-.126c-.215-.03-.427-.031-.643-.062-.216-.03-.457-.027-.673-.058l-.338-.043-.334-.014c-1.888-.1-3.911.123-5.977.687zM21.077.204a29.99 29.99 0 0 0-5.52 1.503l.656 3.392c.682-.247 1.364-.494 2.054-.682a30.16 30.16 0 0 1 2.776-.633l.034-3.58zM10.912 13.245c.243-.213.49-.397.733-.61.243-.213.523-.371.77-.555 2.04-1.45 4.292-2.452 6.535-3.095.731-.192 1.462-.384 2.17-.513l.07-3.17c-.768.138-1.562.31-2.352.51a25.06 25.06 0 0 0-7.747 3.533 24.708 24.708 0 0 0-2.081 1.574l1.71 2.472c.026-.033.111-.075.192-.146zM10.36 8.215c.566-.378 1.132-.757 1.737-1.082l-1.33-3.073A32.792 32.792 0 0 0 6.366 7.13l1.896 2.695c.664-.572 1.365-1.09 2.097-1.61zM26.178 4.932c-.092-.017-.179-.005-.266.007l-.71 3.155.357.009.36.038c.24.026.476.022.716.048.24.025.477.022.688.051.24.026.455.085.666.114.456.085.874.115 1.305.232l.186.063 1.401-3.074c-1.411-.365-3.01-.585-4.703-.643z"/>
        <path fill="#F48020" d="M11.552 31.724c-.075-.11-.145-.19-.22-.3l-.19-.302c-.12-.224-.264-.413-.384-.636l-.331-.674c-.046-.113-.12-.223-.166-.336l-.136-.341c-.368-.938-.538-1.934-.65-2.939l-.004-.24-2.622-.59.02.147c.112 1.214.286 2.45.712 3.59l.149.428c.05.143.128.282.177.425l.385.846c.157.278.31.527.467.804l.232.388c.079.139.182.244.26.383l.547.733c.182.245.388.456.6.696.388.455.827.844 1.265 1.232.17.156.364.279.53.405l1.568-1.45-.199-.152c-.368-.308-.736-.616-1.055-.992-.173-.185-.343-.341-.488-.53-.174-.186-.322-.405-.467-.595z"/>
        <path fill="#F48020" d="M13.65 26.65a6.983 6.983 0 0 1 .774-3.696c.025-.034.05-.067.045-.097l-2.43-2.432-.283.492-.3.585c-.09.193-.148.413-.238.606l-.131.32-.103.316-.172.657c-.057.43-.172.869-.196 1.324 0 .211-.053.46-.053.67l.005.663c.067.896.196 1.812.518 2.641l.103.317c.046.114.087.199.133.313l.264.626c.115.195.231.39.318.589l.157.28c.07.08.115.194.185.275l.4.546c.14.161.281.323.426.513.284.352.618.637.923.926.1.076.231.178.33.255l1.82-1.703-.1-.076a6.99 6.99 0 0 1-1.25-1.362 8.079 8.079 0 0 1-1.145-3.548zM8.398 32.95c-.108-.14-.216-.28-.295-.423l-.266-.426c-.158-.286-.345-.57-.507-.886l-.342-.755-2.415.4c.425.93.936 1.846 1.497 2.694.444.649.913 1.262 1.44 1.868.173.192.352.414.555.602l1.892-1.193a4.488 4.488 0 0 1-.315-.358c-.211-.248-.452-.492-.663-.74a28.876 28.876 0 0 0-.581-.784zM6.008 28.191c-.202-.79-.315-1.593-.402-2.43l-.008-.483-2.699-.56c.017.118.004.241.02.36.054 1.024.2 2.064.46 3.058l2.629.055zM8.105 19.384c-.115.287-.23.573-.35.83l-.19.419-.126.438c-.084.283-.165.595-.25.878a4.526 4.526 0 0 1-.149.713l2.738 1.089c.04-.156.046-.338.086-.494a4.67 4.67 0 0 1 .21-.72l.103-.376.137-.35c.094-.224.183-.477.276-.701l.34-.68c.049-.097.124-.227.172-.325l.203-.329.132-.169-2.225-2.094c-.233.334-.462.697-.66 1.056-.15.262-.297.553-.447.815zM5.149 13.494L2.77 11.2a20.298 20.298 0 0 0-2.225 3.888l2.707 1.759c.216-.458.432-.916.678-1.379a20.84 20.84 0 0 1 1.218-1.974zM5.049 15.95a16.854 16.854 0 0 0-1.708 4.378 6.698 6.698 0 0 0-.143.75l2.727 1.109c.04-.158.045-.341.085-.5.08-.315.185-.664.265-.98l.15-.477.18-.482c.11-.32.25-.644.364-.934.145-.294.32-.592.46-.916.07-.162.144-.295.245-.46l.28-.436c.1-.166.231-.337.327-.533l-2.188-2.127a11.257 11.257 0 0 0-1.044 1.608zM6.743 36.04c-.57-.576-1.089-1.219-1.578-1.866-.038-.054-.076-.109-.11-.134l-2.331.835c.497.706 1.05 1.374 1.659 2.004.25.263.498.497.75.76l2.032-1.21-.422-.389z"/>
        <path fill="#F69322" d="M23.455 31.527c-.627.493-1.385.912-2.237 1.094a5.876 5.876 0 0 1-3.392-.24c-.255-.09-.484-.213-.713-.336l-1.87 1.758c.36.199.75.393 1.136.557.386.164.794.262 1.205.391.216.032.403.068.62.1.216.032.398.038.614.07.823.04 1.637.019 2.396-.181a8.06 8.06 0 0 0 3.554-1.84l-1.313-1.373zM23.725 34.58c-.167.08-.36.193-.528.273-.197.085-.364.165-.561.25a4.773 4.773 0 0 1-.598.198c-.201.057-.398.141-.602.17-.26.065-.548.134-.84.175l-.04 1.63c.23-.06.493-.098.723-.159.263-.037.519-.13.749-.19.259-.065.489-.126.74-.247.226-.089.481-.181.708-.27l.666-.35c.222-.117.444-.234.633-.374.189-.14.411-.258.6-.398 0 0 .03-.004.025-.032l-.86-1.247c-.11.072-.219.145-.357.221-.097.156-.261.265-.458.35zM26.335 38.512c-.136.076-.267.18-.402.257-.135.076-.27.153-.434.233-.054.036-.107.072-.164.08l.57 1.353c.729-.418 1.45-.892 2.135-1.418l-.807-1.175c-.053.036-.078.068-.131.104-.234.205-.5.385-.767.566zM10.726 38.158c.68.446 1.375.795 2.094 1.108l1.138-1.72a14.707 14.707 0 0 1-1.713-.907l-1.519 1.52zM26.005 35.909c-.22.152-.44.304-.63.452-.22.153-.44.305-.664.428-.224.122-.478.249-.727.405-.258.097-.512.224-.77.321-.253.127-.516.194-.803.295-.262.067-.545.198-.811.236-.292.07-.554.138-.85.18l-.089.012-.027 1.734c.262-.067.557-.108.82-.176.325-.045.638-.18.988-.26.317-.105.639-.18.951-.316.313-.135.6-.236.914-.371.279-.16.562-.292.84-.452.14-.08.284-.131.42-.241.139-.08.274-.19.384-.267.246-.186.525-.347.77-.533a.625.625 0 0 0 .16-.144l-.876-1.303zM23.287 40.201l-.444.157c-.357.113-.68.252-1.046.304l-1.054.242-.032 1.765a16.008 16.008 0 0 0 2.906-.786l-.33-1.682zM18.26 35.688c-.213-.031-.456-.058-.669-.088a7.89 7.89 0 0 1-1.339-.388 8.933 8.933 0 0 1-1.535-.725l-1.586 1.467c.552.316 1.13.6 1.699.822.54.228 1.096.362 1.652.496l.829.157c.276.052.543.045.845.063.15.01.272.022.422.032l.15.009.407-1.786c-.059.008-.15-.01-.21-.001-.213-.03-.451-.028-.665-.058zM17.672 42.795l.39-1.805-.09.013c-.185-.006-.37-.011-.584-.012l-.588-.042c-.184-.006-.369-.011-.588-.043a12.384 12.384 0 0 1-1.034-.167l-.82 1.803c1.16.18 2.246.278 3.314.253zM16.805 39.95l.563.036c.187.003.377.034.533.04l.278-.01.416-1.673c-.156-.007-.282-.018-.438-.025-.312-.014-.62 0-.936-.042-.316-.042-.602-.088-.914-.102l-.819 1.673c.251.022.507.073.758.095l.56.008z"/>
        <path fill="#FAA741" d="M31.04 30.317L29.52 30c-.105.826-.297 1.695-.682 2.53-.12.266-.244.501-.394.772l1.348.871c.123-.236.278-.476.371-.707.457-1 .75-2.04.864-3.022.022-.066.018-.097.013-.127zM30.71 26.713c-.141-.345-.226-.728-.395-1.04-.444-.94-.925-1.694-1.371-2.21l-1.18.714a7.711 7.711 0 0 1 1.126 1.788c.263.541.443 1.155.604 1.862l.101.716 1.502.032-.092-.656a3.618 3.618 0 0 0-.145-.588c-.068-.264-.093-.443-.15-.618zM31.41 24.361c-.335-.587-.758-1.133-1.243-1.67l-1.022.575c.337.386.726.908 1.096 1.52l1.17-.425zM32.393 26.288l-1.286.212c.058.185.116.37.147.59.063.215.125.431.16.683l.116.818 1.384.03c-.11-.787-.253-1.569-.52-2.333zM26.66 23.785l-.938.883a.787.787 0 0 0 .17.157c.31.317.744.888 1.12 1.677.174.397.328.857.431 1.384.03.206.058.413.091.649l1.422.04c-.029-.206-.029-.417-.054-.594a8.19 8.19 0 0 0-.509-1.733c-.434-.992-.947-1.702-1.36-2.125-.104-.106-.178-.215-.249-.296-.09-.017-.124-.042-.124-.042zM30.106 34.4l1.235.759c.403-.697.741-1.414.983-2.147L31 32.5c-.137.368-.269.765-.467 1.142-.121.25-.273.504-.426.759zM26.32 31.133c.257-.552.417-1.15.495-1.677.075-.556.033-1.066-.033-1.542-.097-.471-.22-.909-.393-1.279a5.178 5.178 0 0 0-1.011-1.556c-.068-.05-.11-.136-.15-.19l-1.107 1.004c.183.217.446.574.641 1.092.05.145.102.29.156.463l.013.09c.008.06.05.144.063.233l.017.12c.046.326.096.683.06 1.082a3.85 3.85 0 0 1-.859 2.122l1.306 1.272c.339-.411.617-.814.802-1.234zM27.371 29.7a7.383 7.383 0 0 1-.48 1.704c-.214.485-.55.986-.926 1.433l1.158 1.11c.428-.515.822-1.055 1.084-1.637.36-.778.594-1.568.678-2.307L27.37 29.7z"/>
    </g>
</svg>
