<?xml version="1.0" encoding="UTF-8"?>
<svg width="18px" height="19px" viewBox="0 0 18 19" version="1.1" xmlns="http://www.w3.org/2000/svg" xmlns:xlink="http://www.w3.org/1999/xlink">
    <!-- Generator: Sketch 45.2 (43514) - http://www.bohemiancoding.com/sketch -->
    <title>year of construction icon</title>
    <desc>Created with Sketch.</desc>
    <defs></defs>
    <g id="Page-1" stroke="none" stroke-width="1" fill="none" fill-rule="evenodd">
        <g id="year-of-construction-icon">
            <path d="M3.5,2 C3.776,2 4,1.776 4,1.5 L4,0.5 C4,0.224 3.776,0 3.5,0 C3.224,0 3,0.224 3,0.5 L3,1.5 C3,1.776 3.224,2 3.5,2" id="Fill-1" fill="#6C4A78"></path>
            <path d="M14.5,2 C14.776,2 15,1.776 15,1.5 L15,0.5 C15,0.224 14.776,0 14.5,0 C14.224,0 14,0.224 14,0.5 L14,1.5 C14,1.776 14.224,2 14.5,2" id="Fill-2" fill="#6C4A78"></path>
            <polygon id="Stroke-3" stroke="#6C4A78" stroke-width="2" stroke-linecap="round" stroke-linejoin="round" points="12 18 1 18 1 5 17 5 17 13"></polygon>
            <path d="M4,14 C4,13.448 4.448,13 5,13 L8,13 C8.553,13 9,13.448 9,14 C9,14.552 8.553,15 8,15 L5,15 C4.448,15 4,14.552 4,14" id="Fill-4" fill="#F37920"></path>
            <path d="M4,10 C4,9.448 4.448,9 5,9 L13,9 C13.553,9 14,9.448 14,10 C14,10.552 13.553,11 13,11 L5,11 C4.448,11 4,10.552 4,10" id="Fill-5" fill="#F37920"></path>
            <polygon id="Stroke-6" stroke="#6C4A78" stroke-width="2" stroke-linecap="round" stroke-linejoin="round" points="17 13 12 13 12 18"></polygon>
            <path d="M2,7 L18,7 L18,2 C18,1.737 17.894,1.479 17.707,1.293 C17.521,1.106 17.263,1 17,1 L16,1 L16,1.5 C16,2.327 15.327,3 14.5,3 C13.673,3 13,2.327 13,1.5 L13,1 L5,1 L5,1.5 C5,2.327 4.327,3 3.5,3 C2.673,3 2,2.327 2,1.5 L2,1 L1,1 C0.737,1 0.479,1.106 0.293,1.293 C0.106,1.479 0,1.737 0,2 L0,7 L2,7" id="Fill-7" fill="#6C4A78"></path>
        </g>
    </g>
</svg>